<?xml version="1.0" encoding="UTF-8"?>
<robot generator="Robot 7.1 (Python 3.12.6 on linux)" generated="2025-08-06T21:10:26.759542" rpa="false" schemaversion="5">
<suite id="s1" name="Get" source="/home/mrjohn/Documents/projects_to_portfolio/automated_tests/robot/tests/api/reqres/get.robot">
<test id="s1-t1" name="Get Reqres Fake API" line="5">
<kw name="Reqres API" owner="rest">
<kw name="Create Authenticated Session Reqres" owner="rest">
<kw name="Create Dictionary" owner="BuiltIn">
<msg time="2025-08-06T21:10:27.541188" level="INFO">&amp;{headers} = { x-api-key=reqres-free-v1 }</msg>
<var>&amp;{headers}</var>
<arg>x-api-key=${api_keys}</arg>
<doc>Creates and returns a dictionary based on the given ``items``.</doc>
<status status="PASS" start="2025-08-06T21:10:27.538838" elapsed="0.007022"/>
</kw>
<kw name="Create Session" owner="RequestsLibrary">
<msg time="2025-08-06T21:10:27.550105" level="INFO">Creating Session using : alias=reqres, url=https://reqres.in/api/, headers={'x-api-key': 'reqres-free-v1'},                     cookies={}, auth=None, timeout=None, proxies=None, verify=False,                     debug=0 </msg>
<arg>alias=${alias}</arg>
<arg>url=${base_url}</arg>
<arg>headers=${headers}</arg>
<arg>disable_warnings=1</arg>
<doc>Create Session: create a HTTP session to a server</doc>
<status status="PASS" start="2025-08-06T21:10:27.546943" elapsed="0.007950"/>
</kw>
<arg>alias=reqres</arg>
<arg>base_url=${BASE_URL}</arg>
<arg>api_keys=reqres-free-v1</arg>
<status status="PASS" start="2025-08-06T21:10:27.534060" elapsed="0.021900"/>
</kw>
<if>
<branch type="IF" condition="'${method}' == 'GET'">
<kw name="Run Keyword And Ignore Error" owner="BuiltIn">
<kw name="GET On Session" owner="RequestsLibrary">
<msg time="2025-08-06T21:10:28.271397" level="INFO">GET Request : url=https://reqres.in/api/users 
 path_url=/api/users 
 headers={'User-Agent': 'python-requests/2.32.3', 'Accept-Encoding': 'gzip, deflate', 'Accept': '*/*', 'Connection': 'keep-alive', 'x-api-key': 'reqres-free-v1'} 
 body=None 
 </msg>
<msg time="2025-08-06T21:10:28.272523" level="INFO">GET Response : url=https://reqres.in/api/users 
 status=200, reason=OK 
 headers={'Date': 'Thu, 07 Aug 2025 00:10:28 GMT', 'Content-Type': 'application/json; charset=utf-8', 'Transfer-Encoding': 'chunked', 'Connection': 'keep-alive', 'Content-Encoding': 'gzip', 'Access-Control-Allow-Origin': '*', 'Etag': 'W/"41e-bY3U72nulxuwNd/TmihMEHjLmek"', 'Nel': '{"report_to":"heroku-nel","response_headers":["Via"],"max_age":3600,"success_fraction":0.01,"failure_fraction":0.1}', 'Ratelimit-Limit': '100', 'Ratelimit-Policy': '100;w=60', 'Ratelimit-Remaining': '98', 'Ratelimit-Reset': '60', 'Referrer-Policy': 'strict-origin-when-cross-origin', 'Report-To': '{"group":"heroku-nel","endpoints":[{"url":"https://nel.heroku.com/reports?s=NO%2BU2n8kdDbU5BNonHAUuxSIi9QQTbmTcI6Pcd1SL9k%3D\\u0026sid=c4c9725f-1ab0-44d8-820f-430df2718e11\\u0026ts=1754518881"}],"max_age":3600}', 'Reporting-Endpoints': 'heroku-nel="https://nel.heroku.com/reports?s=NO%2BU2n8kdDbU5BNonHAUuxSIi9QQTbmTcI6Pcd1SL9k%3D&amp;sid=c4c9725f-1ab0-44d8-820f-430df2718e11&amp;ts=1754518881"', 'Via': '1.1 heroku-router', 'X-Content-Type-Options': 'nosniff', 'X-Frame-Options': 'DENY', 'X-Request-Id': '0387f1cf-985c-8f8e-bdd8-5c84f5bfcbd3', 'X-Xss-Protection': '1; mode=block', 'Age': '6546', 'Cache-Control': 'max-age=14400', 'cf-cache-status': 'HIT', 'Vary': 'Accept-Encoding', 'Server': 'cloudflare', 'CF-RAY': '96b28d15c9260598-IAD', 'server-timing': 'cfL4;desc="?proto=TCP&amp;rtt=215208&amp;min_rtt=165645&amp;rtt_var=87239&amp;sent=5&amp;recv=8&amp;lost=0&amp;retrans=0&amp;sent_bytes=2832&amp;recv_bytes=795&amp;delivery_rate=24410&amp;cwnd=33&amp;unsent_bytes=0&amp;cid=4e9e419c5d3e69ee&amp;ts=257&amp;x=0"'} 
 body={"page":1,"per_page":6,"total":12,"total_pages":2,"data":[{"id":1,"email":"george.bluth@reqres.in","first_name":"George","last_name":"Bluth","avatar":"https://reqres.in/img/faces/1-image.jpg"},{"id":2,"email":"janet.weaver@reqres.in","first_name":"Janet","last_name":"Weaver","avatar":"https://reqres.in/img/faces/2-image.jpg"},{"id":3,"email":"emma.wong@reqres.in","first_name":"Emma","last_name":"Wong","avatar":"https://reqres.in/img/faces/3-image.jpg"},{"id":4,"email":"eve.holt@reqres.in","first_name":"Eve","last_name":"Holt","avatar":"https://reqres.in/img/faces/4-image.jpg"},{"id":5,"email":"charles.morris@reqres.in","first_name":"Charles","last_name":"Morris","avatar":"https://reqres.in/img/faces/5-image.jpg"},{"id":6,"email":"tracey.ramos@reqres.in","first_name":"Tracey","last_name":"Ramos","avatar":"https://reqres.in/img/faces/6-image.jpg"}],"support":{"url":"https://contentcaddy.io?utm_source=reqres&amp;utm_medium=json&amp;utm_campaign=referral","text":"Tired of writing endless social media content? Let Content Caddy generate it for you."}} 
 </msg>
<arg>reqres</arg>
<arg>${final_url}</arg>
<doc>Sends a GET request on a previously created HTTP Session.</doc>
<status status="PASS" start="2025-08-06T21:10:27.559538" elapsed="0.713654"/>
</kw>
<msg time="2025-08-06T21:10:28.274564" level="INFO">${response} = ('PASS', &lt;Response [200]&gt;)</msg>
<var>${response}</var>
<arg>GET On Session</arg>
<arg>reqres</arg>
<arg>${final_url}</arg>
<doc>Runs the given keyword with the given arguments and ignores possible error.</doc>
<status status="PASS" start="2025-08-06T21:10:27.558334" elapsed="0.717479"/>
</kw>
<status status="PASS" start="2025-08-06T21:10:27.556951" elapsed="0.719644"/>
</branch>
<branch type="ELSE IF" condition="'${method}' == 'PUT'">
<kw name="Run Keyword And Ignore Error" owner="BuiltIn">
<var>${response}</var>
<arg>PUT On Session</arg>
<arg>alias=reqres</arg>
<arg>url=${final_url}</arg>
<arg>json=${data}</arg>
<doc>Runs the given keyword with the given arguments and ignores possible error.</doc>
<status status="NOT RUN" start="2025-08-06T21:10:28.278080" elapsed="0.000728"/>
</kw>
<status status="NOT RUN" start="2025-08-06T21:10:28.277244" elapsed="0.001946"/>
</branch>
<branch type="ELSE">
<kw name="Fatal Error" owner="BuiltIn">
<arg>msg=A valid method need to be choosed: GET, PUT, POST, DELETE</arg>
<doc>Stops the whole test execution.</doc>
<status status="NOT RUN" start="2025-08-06T21:10:28.280152" elapsed="0.000413"/>
</kw>
<status status="NOT RUN" start="2025-08-06T21:10:28.279436" elapsed="0.001430"/>
</branch>
<status status="PASS" start="2025-08-06T21:10:27.556733" elapsed="0.724324"/>
</if>
<kw name="Run Keyword And Return Status" owner="BuiltIn">
<kw name="Log" owner="BuiltIn">
<msg time="2025-08-06T21:10:37.312299" level="INFO">200</msg>
<arg>${response[1].status_code}</arg>
<doc>Logs the given message with the given level.</doc>
<status status="PASS" start="2025-08-06T21:10:34.579389" elapsed="2.733529"/>
</kw>
<msg time="2025-08-06T21:10:37.315328" level="INFO">${has_status_code} = True</msg>
<var>${has_status_code}</var>
<arg>Log</arg>
<arg>${response[1].status_code}</arg>
<doc>Runs the given keyword with given arguments and returns the status as a Boolean value.</doc>
<status status="PASS" start="2025-08-06T21:10:28.282168" elapsed="9.033762"/>
</kw>
<if>
<branch type="IF" condition="${has_status_code} == True">
<kw name="Log" owner="BuiltIn">
<msg time="2025-08-06T21:11:22.086016" level="INFO">Status code: 200 | Response text: {"page":1,"per_page":6,"total":12,"total_pages":2,"data":[{"id":1,"email":"george.bluth@reqres.in","first_name":"George","last_name":"Bluth","avatar":"https://reqres.in/img/faces/1-image.jpg"},{"id":2,"email":"janet.weaver@reqres.in","first_name":"Janet","last_name":"Weaver","avatar":"https://reqres.in/img/faces/2-image.jpg"},{"id":3,"email":"emma.wong@reqres.in","first_name":"Emma","last_name":"Wong","avatar":"https://reqres.in/img/faces/3-image.jpg"},{"id":4,"email":"eve.holt@reqres.in","first_name":"Eve","last_name":"Holt","avatar":"https://reqres.in/img/faces/4-image.jpg"},{"id":5,"email":"charles.morris@reqres.in","first_name":"Charles","last_name":"Morris","avatar":"https://reqres.in/img/faces/5-image.jpg"},{"id":6,"email":"tracey.ramos@reqres.in","first_name":"Tracey","last_name":"Ramos","avatar":"https://reqres.in/img/faces/6-image.jpg"}],"support":{"url":"https://contentcaddy.io?utm_source=reqres&amp;utm_medium=json&amp;utm_campaign=referral","text":"Tired of writing endless social media content? Let Content Caddy generate it for you."}} 
</msg>
<arg>message=Status code: ${response[1].status_code} | Response text: ${response[1].text} ${\n}</arg>
<arg>console=True</arg>
<doc>Logs the given message with the given level.</doc>
<status status="PASS" start="2025-08-06T21:11:20.998081" elapsed="1.089292"/>
</kw>
<return>
<value>${response[1].text}</value>
<status status="PASS" start="2025-08-06T21:11:22.088366" elapsed="15.756916"/>
</return>
<status status="PASS" start="2025-08-06T21:10:37.316961" elapsed="60.528720"/>
</branch>
<branch type="ELSE">
<kw name="Log" owner="BuiltIn">
<arg>${final_url} Returned text: ${response[1]} ${\n}</arg>
<arg>level=WARN</arg>
<doc>Logs the given message with the given level.</doc>
<status status="NOT RUN" start="2025-08-06T21:11:37.846534" elapsed="0.000491"/>
</kw>
<kw name="Create Dictionary" owner="BuiltIn">
<var>&amp;{dict_text}</var>
<arg>text=${response[1]}</arg>
<doc>Creates and returns a dictionary based on the given ``items``.</doc>
<status status="NOT RUN" start="2025-08-06T21:11:37.848353" elapsed="0.000535"/>
</kw>
<return>
<value>${dict_text}</value>
<status status="NOT RUN" start="2025-08-06T21:11:37.849326" elapsed="0.000295"/>
</return>
<status status="NOT RUN" start="2025-08-06T21:11:37.845916" elapsed="0.004140"/>
</branch>
<status status="PASS" start="2025-08-06T21:10:37.316783" elapsed="60.533569"/>
</if>
<msg time="2025-08-06T21:11:37.852176" level="INFO">${response_body_seccess_list} = {"page":1,"per_page":6,"total":12,"total_pages":2,"data":[{"id":1,"email":"george.bluth@reqres.in","first_name":"George","last_name":"Bluth","avatar":"https://reqres.in/img/faces/1-image.jpg"},{"id":2...</msg>
<var>${response_body_seccess_list}</var>
<arg>method=GET</arg>
<arg>final_url=users</arg>
<doc>If method is PUT, ${data} must be in dict "{}" format.</doc>
<status status="PASS" start="2025-08-06T21:10:27.530104" elapsed="70.322522"/>
</kw>
<kw name="Reqres API" owner="rest">
<kw name="Create Authenticated Session Reqres" owner="rest">
<kw name="Create Dictionary" owner="BuiltIn">
<msg time="2025-08-06T21:11:41.513639" level="INFO">&amp;{headers} = { x-api-key=reqres-free-v1 }</msg>
<var>&amp;{headers}</var>
<arg>x-api-key=${api_keys}</arg>
<doc>Creates and returns a dictionary based on the given ``items``.</doc>
<status status="PASS" start="2025-08-06T21:11:40.692001" elapsed="0.822397"/>
</kw>
<kw name="Create Session" owner="RequestsLibrary">
<msg time="2025-08-06T21:11:42.350502" level="INFO">Creating Session using : alias=reqres, url=https://reqres.in/api/, headers={'x-api-key': 'reqres-free-v1'},                     cookies={}, auth=None, timeout=None, proxies=None, verify=False,                     debug=0 </msg>
<arg>alias=${alias}</arg>
<arg>url=${base_url}</arg>
<arg>headers=${headers}</arg>
<arg>disable_warnings=1</arg>
<doc>Create Session: create a HTTP session to a server</doc>
<status status="PASS" start="2025-08-06T21:11:41.515830" elapsed="0.835747"/>
</kw>
<arg>alias=reqres</arg>
<arg>base_url=${BASE_URL}</arg>
<arg>api_keys=reqres-free-v1</arg>
<status status="PASS" start="2025-08-06T21:11:40.154617" elapsed="2.197561"/>
</kw>
<if>
<branch type="IF" condition="'${method}' == 'GET'">
<kw name="Run Keyword And Ignore Error" owner="BuiltIn">
<kw name="GET On Session" owner="RequestsLibrary">
<msg time="2025-08-06T21:11:44.542440" level="INFO">GET Request : url=https://reqres.in/api/users/2 
 path_url=/api/users/2 
 headers={'User-Agent': 'python-requests/2.32.3', 'Accept-Encoding': 'gzip, deflate', 'Accept': '*/*', 'Connection': 'keep-alive', 'x-api-key': 'reqres-free-v1'} 
 body=None 
 </msg>
<msg time="2025-08-06T21:11:44.543230" level="INFO">GET Response : url=https://reqres.in/api/users/2 
 status=200, reason=OK 
 headers={'Date': 'Thu, 07 Aug 2025 00:11:44 GMT', 'Content-Type': 'application/json; charset=utf-8', 'Transfer-Encoding': 'chunked', 'Connection': 'keep-alive', 'Content-Encoding': 'gzip', 'Access-Control-Allow-Origin': '*', 'Etag': 'W/"152-ApQgGHL6RKwaebFlrPCYPBO1xHg"', 'Nel': '{"report_to":"heroku-nel","response_headers":["Via"],"max_age":3600,"success_fraction":0.01,"failure_fraction":0.1}', 'Ratelimit-Limit': '100', 'Ratelimit-Policy': '100;w=60', 'Ratelimit-Remaining': '79', 'Ratelimit-Reset': '58', 'Referrer-Policy': 'strict-origin-when-cross-origin', 'Report-To': '{"group":"heroku-nel","endpoints":[{"url":"https://nel.heroku.com/reports?s=6MZMLbR3rTaEIkso2VebHFbC4J843R4RrIXl%2Bfl3dhw%3D\\u0026sid=c4c9725f-1ab0-44d8-820f-430df2718e11\\u0026ts=1754521330"}],"max_age":3600}', 'Reporting-Endpoints': 'heroku-nel="https://nel.heroku.com/reports?s=6MZMLbR3rTaEIkso2VebHFbC4J843R4RrIXl%2Bfl3dhw%3D&amp;sid=c4c9725f-1ab0-44d8-820f-430df2718e11&amp;ts=1754521330"', 'Via': '1.1 heroku-router', 'X-Content-Type-Options': 'nosniff', 'X-Frame-Options': 'DENY', 'X-Request-Id': 'dcc8e739-b73a-1ded-7b18-9c08446299e6', 'X-Xss-Protection': '1; mode=block', 'Age': '4174', 'Cache-Control': 'max-age=14400', 'cf-cache-status': 'HIT', 'Vary': 'Accept-Encoding', 'Server': 'cloudflare', 'CF-RAY': '96b28ef299b9c587-IAD', 'server-timing': 'cfL4;desc="?proto=TCP&amp;rtt=177723&amp;min_rtt=173621&amp;rtt_var=52511&amp;sent=5&amp;recv=7&amp;lost=0&amp;retrans=0&amp;sent_bytes=2832&amp;recv_bytes=797&amp;delivery_rate=23290&amp;cwnd=33&amp;unsent_bytes=0&amp;cid=bbeb500ee2c801f9&amp;ts=249&amp;x=0"'} 
 body={"data":{"id":2,"email":"janet.weaver@reqres.in","first_name":"Janet","last_name":"Weaver","avatar":"https://reqres.in/img/faces/2-image.jpg"},"support":{"url":"https://contentcaddy.io?utm_source=reqres&amp;utm_medium=json&amp;utm_campaign=referral","text":"Tired of writing endless social media content? Let Content Caddy generate it for you."}} 
 </msg>
<arg>reqres</arg>
<arg>${final_url}</arg>
<doc>Sends a GET request on a previously created HTTP Session.</doc>
<status status="PASS" start="2025-08-06T21:11:43.422759" elapsed="1.121113"/>
</kw>
<msg time="2025-08-06T21:11:44.544587" level="INFO">${response} = ('PASS', &lt;Response [200]&gt;)</msg>
<var>${response}</var>
<arg>GET On Session</arg>
<arg>reqres</arg>
<arg>${final_url}</arg>
<doc>Runs the given keyword with the given arguments and ignores possible error.</doc>
<status status="PASS" start="2025-08-06T21:11:42.927843" elapsed="1.617094"/>
</kw>
<status status="PASS" start="2025-08-06T21:11:42.352693" elapsed="2.192660"/>
</branch>
<branch type="ELSE IF" condition="'${method}' == 'PUT'">
<kw name="Run Keyword And Ignore Error" owner="BuiltIn">
<var>${response}</var>
<arg>PUT On Session</arg>
<arg>alias=reqres</arg>
<arg>url=${final_url}</arg>
<arg>json=${data}</arg>
<doc>Runs the given keyword with the given arguments and ignores possible error.</doc>
<status status="NOT RUN" start="2025-08-06T21:11:44.546788" elapsed="0.000523"/>
</kw>
<status status="NOT RUN" start="2025-08-06T21:11:44.545714" elapsed="0.002791"/>
</branch>
<branch type="ELSE">
<kw name="Fatal Error" owner="BuiltIn">
<arg>msg=A valid method need to be choosed: GET, PUT, POST, DELETE</arg>
<doc>Stops the whole test execution.</doc>
<status status="NOT RUN" start="2025-08-06T21:11:44.549643" elapsed="0.000419"/>
</kw>
<status status="NOT RUN" start="2025-08-06T21:11:44.548880" elapsed="0.001566"/>
</branch>
<status status="PASS" start="2025-08-06T21:11:42.352596" elapsed="2.198124"/>
</if>
<kw name="Run Keyword And Return Status" owner="BuiltIn">
<kw name="Log" owner="BuiltIn">
<msg time="2025-08-06T21:11:48.839930" level="INFO">200</msg>
<arg>${response[1].status_code}</arg>
<doc>Logs the given message with the given level.</doc>
<status status="PASS" start="2025-08-06T21:11:47.907562" elapsed="0.933243"/>
</kw>
<msg time="2025-08-06T21:11:48.841456" level="INFO">${has_status_code} = True</msg>
<var>${has_status_code}</var>
<arg>Log</arg>
<arg>${response[1].status_code}</arg>
<doc>Runs the given keyword with given arguments and returns the status as a Boolean value.</doc>
<status status="PASS" start="2025-08-06T21:11:44.551115" elapsed="4.290694"/>
</kw>
<if>
<branch type="IF" condition="${has_status_code} == True">
<kw name="Log" owner="BuiltIn">
<msg time="2025-08-06T21:11:50.728562" level="INFO">Status code: 200 | Response text: {"data":{"id":2,"email":"janet.weaver@reqres.in","first_name":"Janet","last_name":"Weaver","avatar":"https://reqres.in/img/faces/2-image.jpg"},"support":{"url":"https://contentcaddy.io?utm_source=reqres&amp;utm_medium=json&amp;utm_campaign=referral","text":"Tired of writing endless social media content? Let Content Caddy generate it for you."}} 
</msg>
<arg>message=Status code: ${response[1].status_code} | Response text: ${response[1].text} ${\n}</arg>
<arg>console=True</arg>
<doc>Logs the given message with the given level.</doc>
<status status="PASS" start="2025-08-06T21:11:50.059993" elapsed="0.669907"/>
</kw>
<return>
<value>${response[1].text}</value>
<status status="PASS" start="2025-08-06T21:11:50.730746" elapsed="25.908010"/>
</return>
<status status="PASS" start="2025-08-06T21:11:48.842519" elapsed="27.797598"/>
</branch>
<branch type="ELSE">
<kw name="Log" owner="BuiltIn">
<arg>${final_url} Returned text: ${response[1]} ${\n}</arg>
<arg>level=WARN</arg>
<doc>Logs the given message with the given level.</doc>
<status status="NOT RUN" start="2025-08-06T21:12:16.644349" elapsed="0.001294"/>
</kw>
<kw name="Create Dictionary" owner="BuiltIn">
<var>&amp;{dict_text}</var>
<arg>text=${response[1]}</arg>
<doc>Creates and returns a dictionary based on the given ``items``.</doc>
<status status="NOT RUN" start="2025-08-06T21:12:16.647123" elapsed="0.000803"/>
</kw>
<return>
<value>${dict_text}</value>
<status status="NOT RUN" start="2025-08-06T21:12:16.648715" elapsed="0.000429"/>
</return>
<status status="NOT RUN" start="2025-08-06T21:12:16.641520" elapsed="0.008082"/>
</branch>
<status status="PASS" start="2025-08-06T21:11:48.842411" elapsed="27.807568"/>
</if>
<msg time="2025-08-06T21:12:16.654811" level="INFO">${response_body_success_id} = {"data":{"id":2,"email":"janet.weaver@reqres.in","first_name":"Janet","last_name":"Weaver","avatar":"https://reqres.in/img/faces/2-image.jpg"},"support":{"url":"https://contentcaddy.io?utm_source=reqr...</msg>
<var>${response_body_success_id}</var>
<arg>method=GET</arg>
<arg>final_url=users/2</arg>
<doc>If method is PUT, ${data} must be in dict "{}" format.</doc>
<status status="PASS" start="2025-08-06T21:11:37.856264" elapsed="38.799354"/>
</kw>
<kw name="Reqres API" owner="rest">
<kw name="Create Authenticated Session Reqres" owner="rest">
<kw name="Create Dictionary" owner="BuiltIn">
<msg time="2025-08-06T21:12:19.894997" level="INFO">&amp;{headers} = { x-api-key=reqres-free-v1 }</msg>
<var>&amp;{headers}</var>
<arg>x-api-key=${api_keys}</arg>
<doc>Creates and returns a dictionary based on the given ``items``.</doc>
<status status="PASS" start="2025-08-06T21:12:19.891750" elapsed="0.004142"/>
</kw>
<kw name="Create Session" owner="RequestsLibrary">
<msg time="2025-08-06T21:12:19.900861" level="INFO">Creating Session using : alias=reqres, url=https://reqres.in/api/, headers={'x-api-key': 'reqres-free-v1'},                     cookies={}, auth=None, timeout=None, proxies=None, verify=False,                     debug=0 </msg>
<arg>alias=${alias}</arg>
<arg>url=${base_url}</arg>
<arg>headers=${headers}</arg>
<arg>disable_warnings=1</arg>
<doc>Create Session: create a HTTP session to a server</doc>
<status status="PASS" start="2025-08-06T21:12:19.897310" elapsed="0.005874"/>
</kw>
<arg>alias=reqres</arg>
<arg>base_url=${BASE_URL}</arg>
<arg>api_keys=reqres-free-v1</arg>
<status status="PASS" start="2025-08-06T21:12:19.888050" elapsed="0.016221"/>
</kw>
<if>
<branch type="IF" condition="'${method}' == 'GET'">
<kw name="Run Keyword And Ignore Error" owner="BuiltIn">
<kw name="GET On Session" owner="RequestsLibrary">
<msg time="2025-08-06T21:12:20.684506" level="INFO">GET Request : url=https://reqres.in/api/users/23 
 path_url=/api/users/23 
 headers={'User-Agent': 'python-requests/2.32.3', 'Accept-Encoding': 'gzip, deflate', 'Accept': '*/*', 'Connection': 'keep-alive', 'x-api-key': 'reqres-free-v1'} 
 body=None 
 </msg>
<msg time="2025-08-06T21:12:20.685177" level="INFO">GET Response : url=https://reqres.in/api/users/23 
 status=404, reason=Not Found 
 headers={'Date': 'Thu, 07 Aug 2025 00:12:20 GMT', 'Content-Type': 'application/json; charset=utf-8', 'Content-Length': '2', 'Connection': 'keep-alive', 'CF-RAY': '96b28fd3dccdd6d0-IAD', 'Access-Control-Allow-Origin': '*', 'Etag': 'W/"2-vyGp6PvFo4RvsFtPoIWeCReyIC8"', 'Nel': '{"report_to":"heroku-nel","response_headers":["Via"],"max_age":3600,"success_fraction":0.01,"failure_fraction":0.1}', 'Ratelimit-Limit': '100', 'Ratelimit-Policy': '100;w=60', 'Ratelimit-Remaining': '98', 'Ratelimit-Reset': '60', 'Referrer-Policy': 'strict-origin-when-cross-origin', 'Report-To': '{"group":"heroku-nel","endpoints":[{"url":"https://nel.heroku.com/reports?s=x4Vc20KMvTKVnSX9vFF7XL332fO9B94zJICKH2o2Nto%3D\\u0026sid=c4c9725f-1ab0-44d8-820f-430df2718e11\\u0026ts=1754525540"}],"max_age":3600}', 'Reporting-Endpoints': 'heroku-nel="https://nel.heroku.com/reports?s=x4Vc20KMvTKVnSX9vFF7XL332fO9B94zJICKH2o2Nto%3D&amp;sid=c4c9725f-1ab0-44d8-820f-430df2718e11&amp;ts=1754525540"', 'Via': '1.1 heroku-router', 'X-Content-Type-Options': 'nosniff', 'X-Frame-Options': 'DENY', 'X-Request-Id': '96bacdf0-2660-6f42-3235-147b13ea7956', 'X-Xss-Protection': '1; mode=block', 'Cache-Control': 'max-age=14400', 'cf-cache-status': 'MISS', 'Vary': 'Accept-Encoding', 'Server': 'cloudflare', 'server-timing': 'cfL4;desc="?proto=TCP&amp;rtt=200318&amp;min_rtt=191444&amp;rtt_var=53721&amp;sent=5&amp;recv=8&amp;lost=0&amp;retrans=0&amp;sent_bytes=2831&amp;recv_bytes=798&amp;delivery_rate=18522&amp;cwnd=33&amp;unsent_bytes=0&amp;cid=dbfa9a9ce5598e73&amp;ts=393&amp;x=0"'} 
 body={} 
 </msg>
<msg time="2025-08-06T21:12:20.685907" level="FAIL">HTTPError: 404 Client Error: Not Found for url: https://reqres.in/api/users/23</msg>
<arg>reqres</arg>
<arg>${final_url}</arg>
<doc>Sends a GET request on a previously created HTTP Session.</doc>
<status status="FAIL" start="2025-08-06T21:12:19.907835" elapsed="0.783853">HTTPError: 404 Client Error: Not Found for url: https://reqres.in/api/users/23</status>
</kw>
<msg time="2025-08-06T21:12:20.692946" level="INFO">${response} = ('FAIL', 'HTTPError: 404 Client Error: Not Found for url: https://reqres.in/api/users/23')</msg>
<var>${response}</var>
<arg>GET On Session</arg>
<arg>reqres</arg>
<arg>${final_url}</arg>
<doc>Runs the given keyword with the given arguments and ignores possible error.</doc>
<status status="PASS" start="2025-08-06T21:12:19.906396" elapsed="0.786964"/>
</kw>
<status status="PASS" start="2025-08-06T21:12:19.905155" elapsed="0.788749"/>
</branch>
<branch type="ELSE IF" condition="'${method}' == 'PUT'">
<kw name="Run Keyword And Ignore Error" owner="BuiltIn">
<var>${response}</var>
<arg>PUT On Session</arg>
<arg>alias=reqres</arg>
<arg>url=${final_url}</arg>
<arg>json=${data}</arg>
<doc>Runs the given keyword with the given arguments and ignores possible error.</doc>
<status status="NOT RUN" start="2025-08-06T21:12:20.695058" elapsed="0.000508"/>
</kw>
<status status="NOT RUN" start="2025-08-06T21:12:20.694279" elapsed="0.001625"/>
</branch>
<branch type="ELSE">
<kw name="Fatal Error" owner="BuiltIn">
<arg>msg=A valid method need to be choosed: GET, PUT, POST, DELETE</arg>
<doc>Stops the whole test execution.</doc>
<status status="NOT RUN" start="2025-08-06T21:12:20.696564" elapsed="0.000283"/>
</kw>
<status status="NOT RUN" start="2025-08-06T21:12:20.696102" elapsed="0.001016"/>
</branch>
<status status="PASS" start="2025-08-06T21:12:19.905026" elapsed="0.792288"/>
</if>
<kw name="Run Keyword And Return Status" owner="BuiltIn">
<kw name="Log" owner="BuiltIn">
<msg time="2025-08-06T21:12:26.439332" level="FAIL">Resolving variable '${response[1].status_code}' failed: AttributeError: 'str' object has no attribute 'status_code'</msg>
<arg>${response[1].status_code}</arg>
<doc>Logs the given message with the given level.</doc>
<status status="FAIL" start="2025-08-06T21:12:24.913120" elapsed="1.527051">Resolving variable '${response[1].status_code}' failed: AttributeError: 'str' object has no attribute 'status_code'</status>
</kw>
<msg time="2025-08-06T21:12:26.441143" level="INFO">${has_status_code} = False</msg>
<var>${has_status_code}</var>
<arg>Log</arg>
<arg>${response[1].status_code}</arg>
<doc>Runs the given keyword with given arguments and returns the status as a Boolean value.</doc>
<status status="PASS" start="2025-08-06T21:12:20.697651" elapsed="5.744329"/>
</kw>
<if>
<branch type="IF" condition="${has_status_code} == True">
<kw name="Log" owner="BuiltIn">
<arg>message=Status code: ${response[1].status_code} | Response text: ${response[1].text} ${\n}